<svg width="20" height="14" viewBox="0 0 20 14" fill="none" xmlns="http://www.w3.org/2000/svg">
<path d="M5 2.8C4.81056 2.8 4.62888 2.87375 4.49492 3.00503C4.36097 3.1363 4.28571 3.31435 4.28571 3.5C4.28571 3.68565 4.36097 3.8637 4.49492 3.99497C4.62888 4.12625 4.81056 4.2 5 4.2H9.28571C9.47515 4.2 9.65684 4.12625 9.79079 3.99497C9.92475 3.8637 10 3.68565 10 3.5C10 3.31435 9.92475 3.1363 9.79079 3.00503C9.65684 2.87375 9.47515 2.8 9.28571 2.8H5Z" fill="#1F54A5"/>
<path d="M4.28571 6.3C4.28571 6.11435 4.36097 5.9363 4.49492 5.80503C4.62888 5.67375 4.81056 5.6 5 5.6H13.5714C13.7609 5.6 13.9426 5.67375 14.0765 5.80503C14.2105 5.9363 14.2857 6.11435 14.2857 6.3C14.2857 6.48565 14.2105 6.6637 14.0765 6.79497C13.9426 6.92625 13.7609 7 13.5714 7H5C4.81056 7 4.62888 6.92625 4.49492 6.79497C4.36097 6.6637 4.28571 6.48565 4.28571 6.3Z" fill="#1F54A5"/>
<path d="M5 8.4C4.81056 8.4 4.62888 8.47375 4.49492 8.60502C4.36097 8.7363 4.28571 8.91435 4.28571 9.1C4.28571 9.28565 4.36097 9.4637 4.49492 9.59498C4.62888 9.72625 4.81056 9.8 5 9.8H10.7143C10.9037 9.8 11.0854 9.72625 11.2194 9.59498C11.3533 9.4637 11.4286 9.28565 11.4286 9.1C11.4286 8.91435 11.3533 8.7363 11.2194 8.60502C11.0854 8.47375 10.9037 8.4 10.7143 8.4H5Z" fill="#1F54A5"/>
<path d="M2.85714 0C2.09938 0 1.37266 0.294999 0.836838 0.820101C0.30102 1.3452 0 2.05739 0 2.8V11.2C0 11.9426 0.30102 12.6548 0.836838 13.1799C1.37266 13.705 2.09938 14 2.85714 14H17.1429C17.9006 14 18.6273 13.705 19.1632 13.1799C19.699 12.6548 20 11.9426 20 11.2V2.8C20 2.05739 19.699 1.3452 19.1632 0.820101C18.6273 0.294999 17.9006 0 17.1429 0H2.85714ZM1.42857 2.8C1.42857 2.4287 1.57908 2.0726 1.84699 1.81005C2.1149 1.5475 2.47826 1.4 2.85714 1.4H17.1429C17.5217 1.4 17.8851 1.5475 18.153 1.81005C18.4209 2.0726 18.5714 2.4287 18.5714 2.8V11.2C18.5714 11.5713 18.4209 11.9274 18.153 12.1899C17.8851 12.4525 17.5217 12.6 17.1429 12.6H2.85714C2.47826 12.6 2.1149 12.4525 1.84699 12.1899C1.57908 11.9274 1.42857 11.5713 1.42857 11.2V2.8Z" fill="#1F54A5"/>
</svg>
