<svg width="24" height="24" viewBox="0 0 24 24" fill="none" xmlns="http://www.w3.org/2000/svg">
<path d="M22.3085 23.5876C23.0147 23.5876 23.5875 23.0149 23.5875 22.3085V1.69167C23.5875 0.985142 23.0148 0.412598 22.3085 0.412598H1.69167C0.985142 0.412598 0.412598 0.985142 0.412598 1.69167V22.3085C0.412598 23.0148 0.985052 23.5876 1.69167 23.5876H22.3085Z" fill="#3C5A99"/>
<path d="M16.403 23.5874V14.6128H19.4153L19.8664 11.1152H16.403V8.88223C16.403 7.8696 16.6842 7.17953 18.1362 7.17953L19.9883 7.17872V4.05045C19.668 4.00783 18.5686 3.9126 17.2895 3.9126C14.6192 3.9126 12.7911 5.54255 12.7911 8.53584V11.1152H9.771V14.6128H12.7911V23.5874H16.403Z" fill="white"/>
</svg>
