<svg width="21" height="28" viewBox="0 0 21 28" fill="none" xmlns="http://www.w3.org/2000/svg">
<path fill-rule="evenodd" clip-rule="evenodd" d="M20.627 10.3571C20.627 12.8188 19.7718 15.0799 18.3435 16.8571H18.3508L10.3135 28L2.27605 16.8571H2.2835C0.855191 15.0799 0 12.8188 0 10.3571C0 4.63705 4.6175 0 10.3135 0C16.0095 0 20.627 4.63705 20.627 10.3571ZM10.3847 17.5709C14.313 17.5709 17.4975 14.3729 17.4975 10.428C17.4975 6.48312 14.313 3.28516 10.3847 3.28516C6.45646 3.28516 3.27197 6.48312 3.27197 10.428C3.27197 14.3729 6.45646 17.5709 10.3847 17.5709Z" fill="#8C847F"/>
<path d="M9.90739 6.12125C10.0346 5.72521 10.5925 5.72521 10.7197 6.12125L11.473 8.46689C11.53 8.64425 11.6945 8.76432 11.8801 8.76392L14.3343 8.75853C14.7487 8.75762 14.9211 9.29052 14.5853 9.53437L12.5967 10.9787C12.4463 11.0879 12.3835 11.2822 12.4412 11.4593L13.2047 13.8016C13.3336 14.1971 12.8822 14.5264 12.5475 14.2811L10.5652 12.8281C10.4153 12.7182 10.2118 12.7182 10.062 12.8281L8.0796 14.2811C7.7449 14.5264 7.29351 14.1971 7.42241 13.8016L8.18591 11.4593C8.24364 11.2822 8.18078 11.0879 8.03041 10.9787L6.04176 9.53437C5.70599 9.29052 5.87841 8.75762 6.29278 8.75853L8.747 8.76392C8.93257 8.76432 9.09714 8.64425 9.15409 8.46689L9.90739 6.12125Z" fill="#FBB12A"/>
</svg>
