<svg width="18" height="17" viewBox="0 0 18 17" fill="none" xmlns="http://www.w3.org/2000/svg">
<path opacity="0.4" d="M8.52088 1.05641C8.76301 0.31453 9.82526 0.31453 10.0674 1.05641L11.5015 5.45043C11.61 5.78268 11.9233 6.0076 12.2766 6.00684L16.9489 5.99675C17.7378 5.99504 18.066 6.9933 17.4268 7.45011L13.6408 10.1557C13.3545 10.3602 13.2348 10.7242 13.3448 11.056L14.7983 15.4437C15.0437 16.1846 14.1843 16.8015 13.5471 16.342L9.77313 13.6201C9.48777 13.4143 9.10051 13.4143 8.81514 13.6201L5.04113 16.342C4.40393 16.8015 3.54456 16.1846 3.78997 15.4437L5.24352 11.056C5.35343 10.7242 5.23376 10.3602 4.94748 10.1557L1.16147 7.45011C0.522245 6.9933 0.850496 5.99504 1.63937 5.99675L6.31172 6.00684C6.66502 6.0076 6.97831 5.78268 7.08675 5.45043L8.52088 1.05641Z" fill="#8C847F"/>
</svg>
