<svg width="29" height="29" viewBox="0 0 29 29" fill="none" xmlns="http://www.w3.org/2000/svg">
<path fill-rule="evenodd" clip-rule="evenodd" d="M25.1586 10.727C25.1586 13.2766 24.2728 15.6185 22.7935 17.4592H22.8012L14.4768 29L6.1523 17.4592H6.15997C4.68066 15.6185 3.79492 13.2766 3.79492 10.727C3.79492 4.80266 8.57733 0 14.4767 0C20.3761 0 25.1586 4.80266 25.1586 10.727ZM14.5504 18.1991C18.6189 18.1991 21.9171 14.8869 21.9171 10.8011C21.9171 6.71533 18.6189 3.40315 14.5504 3.40315C10.4818 3.40315 7.18361 6.71533 7.18361 10.8011C7.18361 14.8869 10.4818 18.1991 14.5504 18.1991Z" fill="#8C847F"/>
<path d="M14.0561 6.34047C14.1878 5.93029 14.7657 5.93029 14.8974 6.34047L15.6776 8.76989C15.7366 8.95359 15.907 9.07795 16.0992 9.07752L18.6411 9.07195C19.0703 9.071 19.2488 9.62293 18.9011 9.8755L16.8414 11.3714C16.6857 11.4845 16.6206 11.6857 16.6804 11.8691L17.4711 14.2951C17.6046 14.7047 17.1371 15.0458 16.7905 14.7917L14.7373 13.2868C14.5821 13.173 14.3714 13.173 14.2161 13.2868L12.163 14.7917C11.8163 15.0458 11.3488 14.7047 11.4823 14.2951L12.2731 11.8691C12.3329 11.6857 12.2678 11.4845 12.112 11.3714L10.0524 9.8755C9.70461 9.62293 9.88319 9.071 10.3124 9.07195L12.8542 9.07752C13.0464 9.07795 13.2169 8.95359 13.2759 8.76989L14.0561 6.34047Z" fill="#FBB12A"/>
</svg>
