<svg width="18" height="19" viewBox="0 0 18 19" fill="none" xmlns="http://www.w3.org/2000/svg">
<g clip-path="url(#clip0)">
<path fill-rule="evenodd" clip-rule="evenodd" d="M18 4.11988C18 2.25446 16.4848 0.73999 14.6194 0.73999H3.38055C1.51516 0.73999 0 2.25446 0 4.11988V14.964C0 16.8289 1.51516 18.3438 3.38056 18.3438H14.6194C16.4848 18.3438 18 16.8289 18 14.964L18 4.11988Z" fill="#0C3B7C"/>
<path fill-rule="evenodd" clip-rule="evenodd" d="M0.000610352 11.6763H8.99052V18.3437H0.00061694L0.000610352 11.6763Z" fill="#0C3B7C"/>
<path d="M8.18058 12.3921L6.73082 12.3907V10.6572C6.73082 10.2868 6.87449 10.094 7.19145 10.05H8.18058C8.88598 10.05 9.34228 10.4947 9.34228 11.2146C9.34228 11.9539 8.89753 12.3914 8.18058 12.3921H8.18058ZM6.73082 7.71648V7.26017C6.73082 6.86091 6.89976 6.67102 7.27015 6.64648H8.01236C8.64844 6.64648 9.02965 7.02697 9.02965 7.6645C9.02965 8.14968 8.76829 8.71645 8.03546 8.71645H6.73082V7.71648ZM10.0318 9.44639L9.7697 9.2991L9.99858 9.10344C10.265 8.87456 10.7112 8.35978 10.7112 7.47172C10.7112 6.11147 9.65634 5.23425 8.02391 5.23425H6.16116V5.23352H5.94889C5.46515 5.25157 5.07744 5.64506 5.07239 6.13169V13.8499H8.06073C9.87511 13.8499 11.0462 12.8622 11.0462 11.3322C11.0462 10.5084 10.6679 9.80449 10.0318 9.44639Z" fill="white"/>
<path d="M11.8244 12.7838C11.8244 12.1942 12.2999 11.7172 12.8858 11.7172C13.4732 11.7172 13.951 12.1942 13.951 12.7838C13.951 13.3726 13.4732 13.8504 12.8858 13.8504C12.2999 13.8504 11.8244 13.3726 11.8244 12.7838Z" fill="#00BAFC"/>
</g>
<defs>
<clipPath id="clip0">
<rect width="18" height="18" fill="white" transform="translate(0 0.5)"/>
</clipPath>
</defs>
</svg>
