<svg width="20" height="20" viewBox="0 0 20 20" fill="none" xmlns="http://www.w3.org/2000/svg">
<path d="M2 14L10.0705 6L18.141 14" stroke="#1F54A5" stroke-width="2" stroke-linecap="round" stroke-linejoin="round"/>
</svg>
