<svg width="129" height="36" viewBox="0 0 129 36" fill="none" xmlns="http://www.w3.org/2000/svg">
<path fill-rule="evenodd" clip-rule="evenodd" d="M24.1061 12.2907C24.1061 15.212 23.1066 17.8952 21.4374 20.0042H21.4461L12.0531 33.2273L2.66003 20.0042H2.66866C0.999439 17.8952 0 15.212 0 12.2907C0 5.50273 5.39633 0 12.053 0C18.7097 0 24.1061 5.50273 24.1061 12.2907ZM12.1361 20.8518C16.727 20.8518 20.4486 17.0568 20.4486 12.3755C20.4486 7.69413 16.727 3.89914 12.1361 3.89914C7.5453 3.89914 3.82369 7.69413 3.82369 12.3755C3.82369 17.0568 7.5453 20.8518 12.1361 20.8518Z" fill="#8C847F"/>
<path d="M11.5786 7.26459C11.7272 6.79462 12.3793 6.79462 12.5279 7.26459L13.4083 10.0481C13.4749 10.2586 13.6672 10.4011 13.884 10.4006L16.7522 10.3942C17.2365 10.3931 17.438 11.0255 17.0456 11.3149L14.7215 13.0288C14.5458 13.1584 14.4723 13.389 14.5398 13.5992L15.432 16.3788C15.5827 16.8481 15.0552 17.2389 14.664 16.9478L12.3473 15.2235C12.1721 15.0931 11.9344 15.0931 11.7592 15.2235L9.44252 16.9478C9.05137 17.2389 8.52383 16.8481 8.67448 16.3788L9.56676 13.5992C9.63423 13.389 9.56076 13.1584 9.38503 13.0288L7.06095 11.3149C6.66856 11.0255 6.87006 10.3931 7.35432 10.3942L10.2225 10.4006C10.4394 10.4011 10.6317 10.2586 10.6982 10.0481L11.5786 7.26459Z" fill="#FBB12A"/>
<path d="M31.6282 27.8653C30.9595 27.8653 30.4023 27.7117 29.9566 27.4046C29.5311 27.0974 29.3184 26.7596 29.3184 26.391V14.6888C29.3184 14.2588 29.5311 13.9107 29.9566 13.6446C30.4023 13.3784 30.9595 13.2453 31.6282 13.2453C32.2157 13.2453 32.7122 13.3784 33.1174 13.6446C33.5226 13.9107 33.7252 14.2588 33.7252 14.6888V15.8253C33.9278 15.3748 34.2115 14.9448 34.5762 14.5353C34.9612 14.1053 35.3867 13.7572 35.8527 13.491C36.339 13.2043 36.8354 13.061 37.3419 13.061H38.2233C38.669 13.061 39.054 13.2657 39.3782 13.6753C39.7226 14.0848 39.8948 14.566 39.8948 15.1188C39.8948 15.6922 39.7226 16.1836 39.3782 16.5931C39.054 17.0027 38.669 17.2074 38.2233 17.2074H37.3419C36.7948 17.2074 36.268 17.4019 35.7615 17.791C35.255 18.1596 34.8396 18.6817 34.5154 19.3574C34.1912 20.0331 34.0291 20.8419 34.0291 21.7838V26.391C34.0291 26.7596 33.7961 27.0974 33.3301 27.4046C32.8641 27.7117 32.2968 27.8653 31.6282 27.8653Z" fill="white"/>
<path d="M48.2137 28.1724C46.7144 28.1724 45.3873 27.9062 44.2324 27.3738C43.0775 26.821 42.1657 26.0531 41.4971 25.0703C40.8487 24.0874 40.5245 22.951 40.5245 21.661V19.4188C40.5245 18.2722 40.8386 17.2177 41.4667 16.2553C42.0948 15.2929 42.9356 14.525 43.9892 13.9517C45.0428 13.3579 46.218 13.061 47.5147 13.061C48.6899 13.061 49.7637 13.3067 50.7363 13.7981C51.7291 14.2896 52.5294 14.9755 53.1373 15.856C53.7451 16.716 54.049 17.7296 54.049 18.8967C54.049 19.8181 53.8971 20.4836 53.5932 20.8931C53.3095 21.2822 52.9347 21.5279 52.4687 21.6303C52.0229 21.7122 51.567 21.7531 51.101 21.7531H45.2353V21.9374C45.2353 22.695 45.519 23.3093 46.0863 23.7803C46.6536 24.2307 47.4033 24.456 48.3353 24.456C48.9634 24.456 49.5003 24.3638 49.9461 24.1796C50.3919 23.9748 50.787 23.7803 51.1314 23.596C51.4758 23.4117 51.8102 23.3196 52.1343 23.3196C52.499 23.3196 52.8131 23.4424 53.0765 23.6881C53.3399 23.9338 53.5324 24.2205 53.6539 24.5481C53.7958 24.8757 53.8667 25.1624 53.8667 25.4081C53.8667 25.7972 53.6337 26.2067 53.1677 26.6367C52.7017 27.0667 52.0432 27.4353 51.1922 27.7424C50.3615 28.0291 49.3687 28.1724 48.2137 28.1724ZM45.2353 19.081H49.0039C49.2268 19.081 49.3889 19.0298 49.4902 18.9274C49.5915 18.825 49.6422 18.6305 49.6422 18.3438C49.6422 17.9343 49.5307 17.5965 49.3079 17.3303C49.1053 17.0436 48.8317 16.8388 48.4873 16.716C48.1631 16.5727 47.8085 16.501 47.4235 16.501C47.0588 16.501 46.7043 16.5727 46.3598 16.716C46.0356 16.8388 45.7621 17.0436 45.5392 17.3303C45.3366 17.5965 45.2353 17.9343 45.2353 18.3438V19.081Z" fill="white"/>
<path d="M62.4401 28.2646C61.9741 28.2646 61.5284 28.1929 61.1029 28.0496C60.6976 27.9062 60.4342 27.7015 60.3127 27.4353L54.9637 15.6103C54.9231 15.5284 54.8826 15.4362 54.8421 15.3338C54.8218 15.211 54.8117 15.1086 54.8117 15.0267C54.8117 14.6581 54.9941 14.3203 55.3588 14.0131C55.7235 13.706 56.149 13.4705 56.6352 13.3067C57.1418 13.1224 57.5976 13.0303 58.0029 13.0303C58.2865 13.0303 58.5499 13.0917 58.7931 13.2146C59.0362 13.3169 59.2084 13.5115 59.3097 13.7981L62.4401 21.8146L65.5705 13.7981C65.6718 13.5115 65.8339 13.3169 66.0568 13.2146C66.2999 13.0917 66.5633 13.0303 66.847 13.0303C67.1712 13.0303 67.5865 13.1224 68.0931 13.3067C68.5996 13.491 69.0454 13.7367 69.4303 14.0438C69.8356 14.351 70.0382 14.6888 70.0382 15.0574C70.0382 15.1598 70.028 15.2519 70.0078 15.3338C69.9875 15.4157 69.9571 15.5079 69.9166 15.6103L64.5676 27.4353C64.446 27.7015 64.1725 27.9062 63.747 28.0496C63.3418 28.1929 62.9062 28.2646 62.4401 28.2646Z" fill="white"/>
<path d="M72.2547 34.5303C71.6468 34.5303 71.1302 34.4177 70.7047 34.1924C70.2994 33.9672 70.0968 33.4041 70.0968 32.5031C70.0968 31.9707 70.1779 31.51 70.34 31.121C70.5223 30.7319 70.8262 30.5374 71.2517 30.5374C71.5354 30.5374 71.9102 30.5067 72.3762 30.4453C72.8423 30.4043 73.3184 30.261 73.8047 30.0153C74.3112 29.79 74.7266 29.401 75.0508 28.8481C75.3952 28.3157 75.5674 27.5684 75.5674 26.606L70.2488 15.9174C70.1475 15.7127 70.0968 15.5079 70.0968 15.3031C70.0968 14.8936 70.2792 14.5148 70.6439 14.1667C71.0086 13.8186 71.4341 13.5422 71.9204 13.3374C72.4269 13.1327 72.8828 13.0303 73.288 13.0303C73.5717 13.0303 73.8351 13.0917 74.0782 13.2146C74.3213 13.3169 74.4936 13.5115 74.5949 13.7981L78.0292 22.1217L80.5517 13.7981C80.653 13.5115 80.8151 13.3169 81.038 13.2146C81.2811 13.0917 81.5243 13.0303 81.7674 13.0303C82.1321 13.0303 82.5678 13.1429 83.0743 13.3681C83.6011 13.5729 84.057 13.8493 84.4419 14.1974C84.8269 14.5455 85.0194 14.9448 85.0194 15.3953C85.0194 15.6 84.9789 15.7741 84.8978 15.9174L80.5821 26.7903C80.1972 27.7527 79.8325 28.6946 79.488 29.616C79.1436 30.5374 78.6978 31.3667 78.1508 32.1038C77.624 32.841 76.8945 33.4246 75.9625 33.8546C75.0305 34.305 73.7945 34.5303 72.2547 34.5303Z" fill="white"/>
<path d="M92.8634 28.1724C91.6275 28.1724 90.4827 27.8755 89.4291 27.2817C88.3958 26.6674 87.5549 25.8688 86.9066 24.886C86.2785 23.8827 85.9644 22.8077 85.9644 21.661V19.511C85.9644 18.3643 86.2683 17.2996 86.8762 16.3167C87.5043 15.3338 88.3451 14.5455 89.3987 13.9517C90.4523 13.3579 91.6072 13.061 92.8634 13.061C94.0994 13.061 95.2441 13.3579 96.2977 13.9517C97.3513 14.525 98.1922 15.3031 98.8203 16.286C99.4687 17.2484 99.7928 18.3234 99.7928 19.511V21.661C99.7928 22.7872 99.4687 23.8519 98.8203 24.8553C98.1922 25.8381 97.3513 26.6367 96.2977 27.251C95.2441 27.8653 94.0994 28.1724 92.8634 28.1724ZM92.8634 24.026C93.2686 24.026 93.6334 23.9134 93.9575 23.6881C94.302 23.4629 94.5755 23.1762 94.7781 22.8281C94.9807 22.4596 95.082 22.0705 95.082 21.661V19.511C95.082 19.1219 94.9807 18.7534 94.7781 18.4053C94.5755 18.0572 94.302 17.7705 93.9575 17.5453C93.6334 17.32 93.2686 17.2074 92.8634 17.2074C92.4582 17.2074 92.0834 17.32 91.7389 17.5453C91.4147 17.7705 91.1513 18.0572 90.9487 18.4053C90.7664 18.7534 90.6752 19.1219 90.6752 19.511V21.661C90.6752 22.0705 90.7664 22.4596 90.9487 22.8281C91.1513 23.1762 91.4147 23.4629 91.7389 23.6881C92.0834 23.9134 92.4582 24.026 92.8634 24.026Z" fill="white"/>
<path d="M108.327 28.1724C107.091 28.1724 105.946 27.8755 104.892 27.2817C103.859 26.6674 103.018 25.8688 102.37 24.886C101.742 23.8827 101.428 22.8077 101.428 21.661V19.511C101.428 18.3643 101.732 17.2996 102.339 16.3167C102.967 15.3338 103.808 14.5455 104.862 13.9517C105.916 13.3579 107.07 13.061 108.327 13.061C109.563 13.061 110.707 13.3579 111.761 13.9517C112.815 14.525 113.655 15.3031 114.283 16.286C114.932 17.2484 115.256 18.3234 115.256 19.511V21.661C115.256 22.7872 114.932 23.8519 114.283 24.8553C113.655 25.8381 112.815 26.6367 111.761 27.251C110.707 27.8653 109.563 28.1724 108.327 28.1724ZM108.327 24.026C108.732 24.026 109.097 23.9134 109.421 23.6881C109.765 23.4629 110.039 23.1762 110.241 22.8281C110.444 22.4596 110.545 22.0705 110.545 21.661V19.511C110.545 19.1219 110.444 18.7534 110.241 18.4053C110.039 18.0572 109.765 17.7705 109.421 17.5453C109.097 17.32 108.732 17.2074 108.327 17.2074C107.921 17.2074 107.547 17.32 107.202 17.5453C106.878 17.7705 106.615 18.0572 106.412 18.4053C106.23 18.7534 106.138 19.1219 106.138 19.511V21.661C106.138 22.0705 106.23 22.4596 106.412 22.8281C106.615 23.1762 106.878 23.4629 107.202 23.6881C107.547 23.9134 107.921 24.026 108.327 24.026Z" fill="white"/>
<path d="M122.483 28.1724C121.429 28.1724 120.457 28.0393 119.565 27.7731C118.694 27.5069 117.995 27.1588 117.468 26.7288C116.962 26.2988 116.708 25.8381 116.708 25.3467C116.708 25.101 116.769 24.8143 116.891 24.4867C117.033 24.1591 117.215 23.8724 117.438 23.6267C117.681 23.381 117.955 23.2581 118.258 23.2581C118.583 23.2581 118.907 23.381 119.231 23.6267C119.555 23.8519 119.95 24.0772 120.416 24.3024C120.903 24.5277 121.551 24.6403 122.361 24.6403C123.172 24.6403 123.689 24.5277 123.911 24.3024C124.134 24.0567 124.246 23.8315 124.246 23.6267C124.246 23.2786 124.073 23.0124 123.729 22.8281C123.385 22.6234 122.939 22.4596 122.392 22.3367C121.865 22.1934 121.298 22.0398 120.69 21.876C120.082 21.6917 119.505 21.446 118.957 21.1388C118.431 20.8317 117.995 20.4119 117.651 19.8796C117.306 19.3472 117.134 18.651 117.134 17.791C117.134 17.0334 117.306 16.2962 117.651 15.5796C118.015 14.8424 118.613 14.2384 119.444 13.7674C120.274 13.2965 121.409 13.061 122.848 13.061C123.739 13.061 124.57 13.1531 125.34 13.3374C126.13 13.5217 126.768 13.7879 127.255 14.136C127.761 14.4636 128.014 14.8424 128.014 15.2724C128.014 15.4772 127.943 15.7638 127.802 16.1324C127.68 16.4805 127.488 16.7979 127.224 17.0846C126.981 17.3712 126.677 17.5146 126.312 17.5146C126.049 17.5146 125.755 17.4429 125.431 17.2996C125.107 17.1357 124.742 16.9822 124.337 16.8388C123.932 16.675 123.456 16.5931 122.908 16.5931C122.503 16.5931 122.169 16.6443 121.906 16.7467C121.662 16.8491 121.48 16.9719 121.358 17.1153C121.237 17.2586 121.176 17.4122 121.176 17.576C121.176 17.8627 121.348 18.0879 121.693 18.2517C122.037 18.395 122.483 18.5384 123.03 18.6817C123.577 18.8046 124.155 18.9581 124.762 19.1424C125.37 19.3062 125.948 19.5622 126.495 19.9103C127.042 20.2379 127.488 20.6884 127.832 21.2617C128.176 21.8146 128.349 22.5415 128.349 23.4424C128.349 24.8757 127.842 26.0224 126.829 26.8824C125.836 27.7424 124.388 28.1724 122.483 28.1724Z" fill="white"/>
<path d="M113.374 35.1503C113.185 35.1503 113.027 35.0893 112.901 34.9675C112.775 34.8457 112.712 34.7027 112.712 34.5385C112.712 34.369 112.775 34.226 112.901 34.1094C113.027 33.9876 113.185 33.9267 113.374 33.9267C113.552 33.9267 113.703 33.9876 113.829 34.1094C113.961 34.226 114.027 34.369 114.027 34.5385C114.027 34.7027 113.961 34.8457 113.829 34.9675C113.703 35.0893 113.552 35.1503 113.374 35.1503Z" fill="#FBB12A"/>
<path d="M116.418 35.182C115.965 35.182 115.593 35.1079 115.301 34.9596C115.014 34.8113 114.802 34.61 114.665 34.3557C114.533 34.1015 114.467 33.8154 114.467 33.4976V32.9574C114.467 32.6395 114.533 32.3535 114.665 32.0993C114.802 31.845 115.014 31.6437 115.301 31.4954C115.587 31.3471 115.954 31.2729 116.401 31.2729C116.681 31.2729 116.931 31.3047 117.148 31.3683C117.366 31.4266 117.538 31.506 117.664 31.6067C117.79 31.7073 117.853 31.8159 117.853 31.9324C117.853 32.0066 117.83 32.0913 117.784 32.1867C117.744 32.282 117.684 32.3641 117.604 32.433C117.529 32.5018 117.44 32.5363 117.337 32.5363C117.269 32.5363 117.2 32.5204 117.131 32.4886C117.068 32.4568 116.988 32.425 116.89 32.3932C116.793 32.3615 116.667 32.3456 116.512 32.3456C116.255 32.3456 116.071 32.3985 115.962 32.5045C115.854 32.6104 115.799 32.7614 115.799 32.9574V33.4976C115.799 33.6936 115.854 33.8446 115.962 33.9505C116.071 34.0565 116.257 34.1094 116.521 34.1094C116.676 34.1094 116.799 34.0909 116.89 34.0538C116.982 34.0167 117.059 33.9823 117.122 33.9505C117.191 33.9134 117.263 33.8949 117.337 33.8949C117.458 33.8949 117.561 33.9267 117.647 33.9902C117.733 34.0538 117.796 34.1333 117.836 34.2286C117.882 34.3187 117.904 34.4034 117.904 34.4829C117.904 34.5994 117.839 34.7133 117.707 34.8245C117.575 34.9304 117.397 35.0178 117.174 35.0867C116.951 35.1503 116.699 35.182 116.418 35.182Z" fill="#FBB12A"/>
<path d="M120.177 35.182C119.828 35.182 119.504 35.1052 119.206 34.9516C118.914 34.7927 118.676 34.5861 118.493 34.3319C118.315 34.0723 118.226 33.7943 118.226 33.4976V32.9415C118.226 32.6448 118.312 32.3694 118.484 32.1152C118.662 31.8609 118.9 31.657 119.197 31.5034C119.495 31.3498 119.822 31.2729 120.177 31.2729C120.527 31.2729 120.85 31.3498 121.148 31.5034C121.446 31.6517 121.684 31.853 121.861 32.1072C122.045 32.3562 122.136 32.6342 122.136 32.9415V33.4976C122.136 33.789 122.045 34.0644 121.861 34.3239C121.684 34.5782 121.446 34.7848 121.148 34.9437C120.85 35.1026 120.527 35.182 120.177 35.182ZM120.177 34.1094C120.292 34.1094 120.395 34.0803 120.486 34.022C120.584 33.9638 120.661 33.8896 120.718 33.7996C120.776 33.7042 120.804 33.6036 120.804 33.4976V32.9415C120.804 32.8408 120.776 32.7455 120.718 32.6554C120.661 32.5654 120.584 32.4912 120.486 32.433C120.395 32.3747 120.292 32.3456 120.177 32.3456C120.063 32.3456 119.957 32.3747 119.859 32.433C119.767 32.4912 119.693 32.5654 119.636 32.6554C119.584 32.7455 119.558 32.8408 119.558 32.9415V33.4976C119.558 33.6036 119.584 33.7042 119.636 33.7996C119.693 33.8896 119.767 33.9638 119.859 34.022C119.957 34.0803 120.063 34.1094 120.177 34.1094Z" fill="#FBB12A"/>
<path d="M123.415 35.1026C123.22 35.1026 123.06 35.0629 122.934 34.9834C122.813 34.904 122.753 34.8166 122.753 34.7212V31.6941C122.753 31.5828 122.813 31.4928 122.934 31.4239C123.06 31.3551 123.22 31.3206 123.415 31.3206C123.575 31.3206 123.713 31.3551 123.827 31.4239C123.942 31.4928 123.999 31.5828 123.999 31.6941V31.8768C124.097 31.7232 124.24 31.5855 124.429 31.4636C124.618 31.3365 124.853 31.2729 125.133 31.2729C125.368 31.2729 125.575 31.3471 125.752 31.4954C125.93 31.6437 126.061 31.8344 126.147 32.0675C126.296 31.7973 126.485 31.5987 126.715 31.4716C126.949 31.3392 127.19 31.2729 127.436 31.2729C127.706 31.2729 127.958 31.3392 128.193 31.4716C128.433 31.5987 128.628 31.7867 128.777 32.0357C128.926 32.2847 129 32.5866 129 32.9415V34.7212C129 34.8166 128.934 34.904 128.803 34.9834C128.671 35.0629 128.513 35.1026 128.33 35.1026C128.152 35.1026 127.998 35.0629 127.866 34.9834C127.734 34.904 127.668 34.8166 127.668 34.7212V32.9415C127.668 32.809 127.64 32.6978 127.582 32.6078C127.531 32.5177 127.459 32.4515 127.368 32.4091C127.282 32.3615 127.19 32.3376 127.093 32.3376C127.001 32.3376 126.912 32.3615 126.826 32.4091C126.746 32.4515 126.677 32.5177 126.62 32.6078C126.568 32.6925 126.543 32.8037 126.543 32.9415V34.7292C126.543 34.8616 126.471 34.9569 126.328 35.0152C126.19 35.0735 126.039 35.1026 125.872 35.1026C125.718 35.1026 125.569 35.0735 125.426 35.0152C125.282 34.9569 125.211 34.8616 125.211 34.7292V32.9494C125.211 32.817 125.182 32.7058 125.125 32.6157C125.068 32.5257 124.993 32.4594 124.901 32.4171C124.815 32.3694 124.724 32.3456 124.626 32.3456C124.535 32.3456 124.446 32.3668 124.36 32.4091C124.28 32.4515 124.214 32.5177 124.162 32.6078C124.111 32.6925 124.085 32.8037 124.085 32.9415V34.7212C124.085 34.8166 124.019 34.904 123.887 34.9834C123.756 35.0629 123.598 35.1026 123.415 35.1026Z" fill="#FBB12A"/>
</svg>
